<svg xmlns="http://www.w3.org/2000/svg" xmlns:xlink="http://www.w3.org/1999/xlink" viewBox="0 0 520.56 438.48">
  <defs>
    <style>
      .cls-1 {
        clip-path: url(#clip-AFOptimis_icon);
      }

      .cls-2, .cls-3 {
        fill: #fff;
      }

      .cls-2 {
        stroke: #fff;
        stroke-miterlimit: 10;
        stroke-width: 3px;
      }
    </style>
    <clipPath id="clip-AFOptimis_icon">
      <rect width="520.56" height="438.48"/>
    </clipPath>
  </defs>
  <g id="AFOptimis_icon" class="cls-1">
    <rect class="cls-3" width="520.56" height="438.48"/>
    <path id="Path_1" data-name="Path 1" d="M360.3,138.589c-3.372.053-4.591,3.388-3.872,6.425,1.686,7.123-1.917,11.394-7.29,14.944-16.674,11.015-33.286,22.125-50.044,33.01-4.874,3.166-7.542,7.178-7.891,13.022-.486,8.143-1.337,16.263-1.987,24.4-.564,7.053-1.065,14.11-1.613,21.412,17.563,0,34.2.234,50.822-.186,3.563-.09,7.474-1.943,10.525-4.016,11.431-7.765,22.554-15.982,33.829-23.978,3.9-2.764,6.239-6.29,6.583-11.176q1.793-25.408,3.765-50.8c.513-6.556,1.282-13.093,1.935-19.638v-3C383.472,138.816,371.88,138.406,360.3,138.589Z"/>
    <g id="Group_1" data-name="Group 1">
      <path id="Path_2" data-name="Path 2" d="M228.249,250.9c-.109-2.021-.149-4.157-.353-6.277-1.208-12.587-2.677-25.155-3.593-37.762-.45-6.2-2.856-10.553-8.09-13.949-15.91-10.322-31.607-20.97-47.456-31.386-6.18-4.062-10.686-8.745-9.96-16.991.33-3.752-1.957-6.058-6.2-6.078-10.479-.048-20.958-.294-31.437-.46v12a8.413,8.413,0,0,1,.808,2.183c1.425,19.414,3,38.821,4.082,58.255.347,6.268,2.661,10.549,7.833,14.036,6.467,4.36,12.59,9.252,18.694,14.124,9.448,7.541,19.864,13.267,32.052,13.662,13.928.452,27.9-.34,41.847-.623A6.706,6.706,0,0,0,228.249,250.9Z"/>
      <path id="Path_3" data-name="Path 3" d="M312.973,284.5c-8.808-4.85-17.825-9.321-27.583-14.322,0,22.513-4.87,39.759-7,62.676H239.342c-4.534-25.214-10-40.075-10-62.2-7.795,3.894-14.757,7.747-22.029,10.88-5.268,2.269-7.156,5.833-7.033,11.277q.384,16.976.35,33.962c-.013,14.986-.327,29.972-.259,44.957.05,11.139,2.721,14.162,13.975,16.614,4.8-11.774,9.731-23.572,14.388-35.478,1.814-4.639,4.748-6.923,9.753-6.888,11.977.083,23.956.014,35.933.024,6.928.005,9.94,2.145,12.482,8.533q6.27,15.747,12.69,31.435a30.056,30.056,0,0,0,1.956,3.417c2.842-1.643,5.845-2.567,7.582-4.583,2.351-2.727,5.244-6.27,5.29-9.5.409-28.632.266-57.273.172-85.911C314.586,287.713,314.094,285.119,312.973,284.5Z"/>
      <path id="Path_4" data-name="Path 4" d="M184.5,280.475c-4.831-2.576-9.425-5.6-14.121-8.422-3.426-2.061-4.874-5.073-5.174-9.081-.154-2.057-.88-4.668-1.754-5.279-6.7-4.685-15.215-10.8-23.16-16.337a31.96,31.96,0,0,0-.5,4.753c2.24,33.179,4.565,66.353,6.75,99.536a9.276,9.276,0,0,0,5.674,8.528c12.046,6,23.98,12.222,35.975,18.323a37.071,37.071,0,0,0,3.965,1.432c0-27.415.029-54.2-.023-80.991C192.116,287.322,189.6,283.2,184.5,280.475Z"/>
      <path id="Path_5" data-name="Path 5" d="M350.955,258.165c-.265.224-.63,2.61-1.422,5.644-1.089,4.172-2.248,8.762-5.733,10.871-5.26,3.183-11.888,6.649-17,9.115-3.494,1.685-3.258,3.781-3.285,6.249-.3,27.785-.189,55.575-.189,83.83a8.925,8.925,0,0,0,1.8-.395q19.09-9.752,38.165-19.532c3.49-1.783,4.811-4.66,5.068-8.488,1.813-27.043,3.76-54.076,5.618-81.116.515-7.492.874-14.994,1.374-23.695C367.361,246.309,357.623,253.119,350.955,258.165Z"/>
      <path id="Path_6" data-name="Path 6" d="M251.766,215.788c-4.88-3.612-10.06-6.818-16.213-10.937.805,22.045-.269,43.729,1.578,65.279,1.622,18.925,6.184,37.747,6.873,56.62h28.055c.627-18.925,5.11-37.728,6.656-56.549,1.789-21.789.664-43.6,1.395-65.658-6.294,4.174-11.821,7.568-17.038,11.386C259.074,218.854,255.671,218.679,251.766,215.788Z"/>
      <path id="Path_7" data-name="Path 7" d="M275.715,356.009a7.862,7.862,0,0,0-6.117-3.617c-4.394-.315-8.639-.2-12.967-.17-19.841.132-15.264-2.152-22.149,17.317-2.685,7.592-4.911,15.384-7.456,23.432H287.9c-3.8-11.694-7.328-22.574-10.868-33.451A16.748,16.748,0,0,0,275.715,356.009Z"/>
    </g>
    <path id="Path_8" data-name="Path 8" d="M256.718,209.52l96.422-58.676c-4.213-28.79-50.539-39.288-94.732-39.288-43.828,0-89.916,10.128-94.619,38.576Z"/>
    <g id="Group_2" data-name="Group 2">
      <path id="Path_9" data-name="Path 9" class="cls-2" d="M183.252,117.034c.141,0,.281.006.422.006q27.609,0,55.217.008a.564.564,0,0,0,.647-.447q9.14-25.938,18.3-51.867c.038-.108.079-.214.12-.325a1.391,1.391,0,0,1,.157-.021c.9-.022.9-.021,1.2.831q9.072,25.7,18.137,51.4a.539.539,0,0,0,.616.432q28.223-.014,56.446-.008h.561c-.558.44-1.024.809-1.491,1.176q-21.477,16.872-42.96,33.738a.491.491,0,0,0-.2.631q7.85,26.637,15.683,53.279c.035.121.062.244.116.455-.183-.115-.3-.186-.421-.264q-23.435-15.621-46.862-31.249a.67.67,0,0,0-.891,0q-23.409,15.624-46.831,31.228c-.126.084-.255.163-.448.287.038-.168.056-.272.086-.372q6.509-22.14,13.02-44.28c.886-3.014,1.767-6.028,2.668-9.037a.543.543,0,0,0-.215-.7q-12.648-9.918-25.283-19.852L183.4,118.218c-.05-.038-.1-.073-.153-.109Zm32.721,82.2c.2-.126.314-.189.418-.258l3.224-2.147q19.272-12.845,38.538-25.7a.52.52,0,0,1,.694.007c1.865,1.259,3.741,2.5,5.613,3.747l36.151,24.1c.109.072.22.14.4.252-.058-.222-.089-.357-.128-.489q-6.939-23.592-13.888-47.18a.583.583,0,0,1,.228-.756q19.391-15.213,38.767-30.444c.1-.078.193-.167.363-.316h-.611q-24.9,0-49.807.005c-.294,0-.47-.037-.588-.373Q267.636,97.784,259.9,75.9c-.458-1.3-.919-2.594-1.4-3.952-.076.188-.132.315-.178.445Q250,95.975,241.683,119.565a.608.608,0,0,1-.7.491q-24.883-.017-49.768-.01h-.579c.183.159.274.244.371.32q19.4,15.237,38.8,30.468a.522.522,0,0,1,.208.668q-6.532,22.153-13.043,44.313C216.648,196.915,216.328,198.015,215.973,199.229Z"/>
    </g>
    <g id="Group_3" data-name="Group 3">
      <path id="Path_10" data-name="Path 10" d="M186.664,118.172c.133,0,.266.006.4.006q26.119,0,52.239.008a.534.534,0,0,0,.611-.424q8.646-24.539,17.316-49.069c.036-.1.074-.2.113-.307a1.237,1.237,0,0,1,.148-.02c.854-.021.854-.02,1.138.786q8.583,24.312,17.158,48.625a.509.509,0,0,0,.584.409q26.7-.013,53.4-.008h.531c-.528.417-.968.766-1.41,1.113q-20.319,15.963-40.643,31.918a.464.464,0,0,0-.189.6q7.427,25.2,14.836,50.4c.034.114.059.231.11.43-.172-.108-.287-.176-.4-.25q-22.17-14.777-44.334-29.563a.636.636,0,0,0-.843,0q-22.144,14.782-44.3,29.544c-.119.079-.241.154-.424.271.036-.158.053-.257.081-.352Q218.94,181.343,225.1,160.4c.838-2.851,1.672-5.7,2.524-8.55a.513.513,0,0,0-.2-.661q-11.965-9.382-23.92-18.781-8.346-6.558-16.694-13.114c-.046-.036-.1-.069-.144-.1Zm30.955,77.76c.194-.119.3-.178.4-.244l3.05-2.03Q239.3,181.5,257.524,169.346a.493.493,0,0,1,.657.006c1.764,1.191,3.539,2.365,5.31,3.546l34.2,22.8c.1.068.209.133.375.239-.055-.211-.084-.338-.121-.463q-6.564-22.318-13.139-44.634a.554.554,0,0,1,.216-.716q18.345-14.393,36.676-28.8c.1-.075.182-.158.343-.3h-.578q-23.561,0-47.12,0c-.278,0-.444-.035-.556-.352Q266.5,99.96,259.18,79.255c-.433-1.227-.869-2.454-1.325-3.739-.071.178-.125.3-.169.421q-7.877,22.313-15.743,44.629a.576.576,0,0,1-.659.465q-23.542-.017-47.084-.009h-.548c.173.149.259.23.351.3q18.349,14.415,36.7,28.825a.492.492,0,0,1,.2.631q-6.18,20.958-12.34,41.923C218.258,193.743,217.955,194.784,217.619,195.932Z"/>
    </g>
    <path id="Path_11" data-name="Path 11" class="cls-3" d="M321.463,121.022h-47.5L257.686,75.937l-15.928,45.084H194.04l37.232,30.1L218.64,194.68l39.541-25.328,40.237,26.328-13.612-44.842Z"/>
    <circle id="Ellipse_1" data-name="Ellipse 1" cx="17.956" cy="17.956" r="17.956" transform="translate(239.545 124.486)"/>
    <path id="Path_12" data-name="Path 12" d="M490.751,112.313,396.44,165.8l3.88-31.16-34.968-1.033L496.8,68.361Z"/>
    <path id="Path_13" data-name="Path 13" d="M483.84,156.76l-89.68,61.171,2-46.091,93.753-53.26Z"/>
    <path id="Path_14" data-name="Path 14" d="M493.913,64.382,455.44,84.24l4.273-54.058h0Z"/>
    <path id="Path_15" data-name="Path 15" d="M25.4,111.313,119.712,164.8l-3.88-31.16,34.968-1.033L19.352,67.361Z"/>
    <path id="Path_16" data-name="Path 16" d="M32.312,155.76l89.68,61.171-2-46.091L26.239,117.58Z"/>
    <path id="Path_17" data-name="Path 17" d="M22.239,63.382,60.712,83.24,56.439,29.182h0Z"/>
    <path id="Path_18" data-name="Path 18" class="cls-3" d="M392.29,179.627,289.214,230.386l.432-5.134,103.149-51.58Z"/>
    <path id="Path_19" data-name="Path 19" class="cls-3" d="M122.718,179.627l103.076,50.759-.432-5.134-103.149-51.58Z"/>
  </g>
</svg>
